-- specification AG (EF environment."vehicle-at_n4")  is false
-- as demonstrated by the following execution sequence
Trace Description: CTL Counterexample 
Trace Type: Counterexample 
-> State: 1.1 <-
  environment."spare-in_n3" = TRUE
  environment."vehicle-at_n2" = FALSE
  environment."spare-in_n2" = FALSE
  environment."vehicle-at_n4" = FALSE
  environment."hasspare" = FALSE
  environment."flattire" = FALSE
  environment."vehicle-at_n3" = FALSE
  environment."vehicle-at_n0" = TRUE
  environment."vehicle-at_n1" = FALSE
  agent.effect = none
  agent.action = wait
-> State: 1.2 <-
  agent.action = "(move-car n0 n1)"
-> State: 1.3 <-
  agent.effect = "(move-car n0 n1)_eff_1"
  agent.action = wait
-- specification AF environment."vehicle-at_n4"  is false
-- as demonstrated by the following execution sequence
Trace Description: CTL Counterexample 
Trace Type: Counterexample 
-- Loop starts here
-> State: 2.1 <-
  environment."spare-in_n3" = TRUE
  environment."vehicle-at_n2" = FALSE
  environment."spare-in_n2" = FALSE
  environment."vehicle-at_n4" = FALSE
  environment."hasspare" = FALSE
  environment."flattire" = FALSE
  environment."vehicle-at_n3" = FALSE
  environment."vehicle-at_n0" = TRUE
  environment."vehicle-at_n1" = FALSE
  agent.effect = none
  agent.action = wait
-> State: 2.2 <-
  agent.action = no_op
-> State: 2.3 <-
  agent.action = wait
-- specification EF environment."vehicle-at_n4"  is true
