first-responders,p_10_1,0,0.33,0.06,146,1369,0.000274003,0,0,0,0.239072,yes,13889,3,193,31,8,10,0,0,272,
first-responders,p_10_10,35584,25.81,0.18,355,3833,0.001302,0,0,0,,?
first-responders,p_10_2,35584,0.25,0.05,119,883,0.000202,0,0,0,,?
first-responders,p_10_3,35584,0.69,0.09,197,1647,0.000460997,0,0,0,,?
first-responders,p_10_4,35584,1.07,0.07,170,1526,0.000391997,0,0,0,,?
first-responders,p_10_5,35584,0.59,0.06,148,985,0.00028,0,0,0,,?
first-responders,p_10_6,512,0.09,0.06,148,985,0.00028,0,0,0,,?
first-responders,p_10_7,35584,2.29,0.09,191,1471,0.000426002,0,0,0,,?
first-responders,p_10_8,35584,11.66,0.2,344,3784,0.00123799,0,0,0,,?
first-responders,p_10_9,512,0.06,0.2,344,3784,0.00123799,0,0,0,,?
first-responders,p_1_1,0,0.03,0.01,9,9,2.09976e-05,0,0,0,0.000139,yes,24,3,3,2,8,8,0,0,8,
first-responders,p_1_10,0,0.05,0.02,45,46,4.59999e-05,0,0,0,0.005895,yes,895,76,24,4,15,15,0,0,463,
first-responders,p_1_2,0,0.03,0,13,10,2.00011e-05,0,0,0,0.000292001,yes,56,17,6,4,7,7,0,0,32,
first-responders,p_1_3,0,0.03,0.01,17,17,2.19978e-05,0,0,0,0.001044,yes,181,59,2,1,8,8,0,0,119,
first-responders,p_1_4,0,0.03,0.01,21,20,2.40002e-05,0,0,0,0.001438,yes,230,66,2,1,9,9,0,0,158,
first-responders,p_1_5,0,0.03,0.01,25,23,2.79993e-05,0,0,0,0.001634,yes,279,52,8,2,10,10,0,0,158,
first-responders,p_1_6,0,0.03,0.01,29,30,3.10019e-05,0,0,0,0.002216,yes,383,60,7,2,11,11,0,0,235,
first-responders,p_1_7,0,0.04,0.01,33,31,3.29986e-05,0,0,0,0.003079,yes,514,67,20,4,12,12,0,0,290,
first-responders,p_1_8,0,0.03,0.01,37,36,3.80017e-05,0,0,0,0.002826,yes,549,51,11,2,13,13,0,0,281,
first-responders,p_1_9,0,0.03,0.02,41,41,4.80004e-05,0,0,0,0.003674,yes,530,63,4,2,14,14,0,0,373,
first-responders,p_2_1,512,0.03,0.02,41,41,4.80004e-05,0,0,0,0.003674,yes,530,63,4,2,14,14,0,0,373,,?
first-responders,p_2_10,512,0.04,0.02,41,41,4.80004e-05,0,0,0,0.003674,yes,530,63,4,2,14,14,0,0,373,,?
first-responders,p_2_2,0,0.02,0,16,17,4.39994e-05,0,0,0,0.006254,no,405,376,0,0,inf,7,0,0,75,
first-responders,p_2_3,0,0.58,0.01,24,37,6.09998e-05,0,0,0,0.527216,yes,6295,2583,2095,6,19,20,0,0,2817,
first-responders,p_2_4,0,0.13,0.01,38,84,4.00003e-05,0,0,0,0.071157,yes,3727,527,60,6,9,13,0,0,2523,
first-responders,p_2_5,512,0.03,0.01,38,84,4.00003e-05,0,0,0,0.071157,yes,3727,527,60,6,9,13,0,0,2523,,?
first-responders,p_2_6,512,0.02,0.01,38,84,4.00003e-05,0,0,0,0.071157,yes,3727,527,60,6,9,13,0,0,2523,,?
first-responders,p_2_7,35584,0.36,0.01,56,123,5.90011e-05,0,0,0,,?
first-responders,p_2_8,0,0.08,0.02,59,128,6.10016e-05,0,0,0,0.024248,yes,1981,185,10,4,15,18,0,0,1701,
first-responders,p_2_9,0,0.04,0.02,54,78,8.29995e-05,0,0,0,0.001004,no,0,0,0,0,6.70119e-39,0,0,0,1,
first-responders,p_3_1,0,0.07,0.01,19,43,2.60007e-05,0,0,0,0.033601,yes,1659,322,406,5,13,13,0,0,339,
first-responders,p_3_10,0,0.05,0.02,107,374,0.000160001,0,0,0,0.011963,no,0,0,0,0,6.70119e-39,0,0,0,1,
first-responders,p_3_2,0,0.96,0.01,27,66,3.10019e-05,0,0,0,0.90924,yes,7254,640,3270,6,20,20,0,0,1355,
first-responders,p_3_3,0,0.02,0.01,29,52,3.49991e-05,0,0,0,0.000294,no,0,0,0,0,6.70119e-39,0,0,0,1,
first-responders,p_3_4,0,0.04,0.01,48,132,5.09992e-05,0,0,0,0.001315,no,0,0,0,0,6.70119e-39,0,0,0,1,
first-responders,p_3_5,512,0.03,0.01,48,132,5.09992e-05,0,0,0,0.001315,no,0,0,0,0,6.70119e-39,0,0,0,1,,?
first-responders,p_3_6,512,0.03,0.01,48,132,5.09992e-05,0,0,0,0.001315,no,0,0,0,0,6.70119e-39,0,0,0,1,,?
first-responders,p_3_7,35584,107.08,0.01,59,124,6.40005e-05,0,0,0,,?
first-responders,p_3_8,38912,1794.79,0.01,61,123,6.50026e-05,0,0,0,,?
first-responders,p_3_9,512,0.03,0.01,61,123,6.50026e-05,0,0,0,,?
first-responders,p_4_1,0,0.03,0.01,20,54,2.6999e-05,0,0,0,0.00359,yes,323,96,25,9,12,14,0,0,117,
first-responders,p_4_10,512,0.04,0.01,20,54,2.6999e-05,0,0,0,0.00359,yes,323,96,25,9,12,14,0,0,117,,?
first-responders,p_4_2,0,62.47,0.01,50,202,5.7999e-05,0,0,0,62.4036,yes,66647,241,3109,27,13,23,0,0,1257,
first-responders,p_4_3,0,0.0800000000002,0.01,48,148,5.59986e-05,0,0,0,0.041829,yes,3879,9,519,12,14,14,0,0,135,
first-responders,p_4_4,35584,0.0599999999999,0.02,74,288,9.09977e-05,0,0,0,,?
first-responders,p_4_5,512,0.04,0.02,74,288,9.09977e-05,0,0,0,,?
first-responders,p_4_6,35584,348.64,0.02,47,85,4.69983e-05,0,0,0,,?
first-responders,p_4_7,38912,1794.85,0.02,87,292,0.000118002,0,0,0,,?
first-responders,p_4_8,38912,1794.81,0.03,114,468,0.000179,0,0,0,,?
first-responders,p_4_9,35584,12.41,0.02,90,253,0.000117,0,0,0,,?
first-responders,p_5_1,0,0.0500000000002,0.02,63,234,7.80001e-05,0,0,0,0.017704,yes,2737,3,94,11,8,8,0,0,25,
first-responders,p_5_10,38912,1794.85,0.03,122,438,0.000205997,0,0,0,,?
first-responders,p_5_2,0,6.35,0.03,52,184,6.10016e-05,0,0,0,6.29947,yes,26052,14,7008,28,8,17,0,0,143,
first-responders,p_5_3,35584,0.0600000000004,0.02,89,375,0.000121001,0,0,0,,?
first-responders,p_5_4,38912,1794.78,0.01,55,157,8.20011e-05,0,0,0,,?
first-responders,p_5_5,35584,0.5,0.03,79,303,0.000100002,0,0,0,,?
first-responders,p_5_6,512,0.0299999999988,0.03,79,303,0.000100002,0,0,0,,?
first-responders,p_5_7,512,0.0300000000007,0.03,79,303,0.000100002,0,0,0,,?
first-responders,p_5_8,35584,0.470000000001,0.05,161,934,0.000310995,0,0,0,,?
first-responders,p_5_9,38912,1794.86,0.03,102,346,0.000164997,0,0,0,,?
first-responders,p_6_1,35584,0.0500000000011,0.02,52,246,5.99995e-05,0,0,0,,?
first-responders,p_6_10,35584,1.24,0.08,228,1608,0.000587001,0,0,0,,?
first-responders,p_6_2,0,2.23,0.02,51,236,8.59983e-05,0,0,0,2.00144,yes,28745,7364,39,16,23,26,0,0,15967,
first-responders,p_6_3,0,22.84,0.03,73,349,9.10014e-05,0,0,0,22.7627,yes,55782,23,4819,22,33,33,0,0,441,
first-responders,p_6_4,38912,1794.85,0.03,88,406,0.000115998,0,0,0,,?
first-responders,p_6_5,35584,2.41,0.05,116,721,0.000192001,0,0,0,,?
first-responders,p_6_6,0,0.0599999999977,0.02,77,206,0.000103999,0,0,0,0.008349,no,0,0,0,0,6.70119e-39,0,0,0,1,
first-responders,p_6_7,512,0.0500000000011,0.02,77,206,0.000103999,0,0,0,0.008349,no,0,0,0,0,6.70119e-39,0,0,0,1,,?
first-responders,p_6_8,38912,1794.79,0.05,137,779,0.000243999,0,0,0,,?
first-responders,p_6_9,35584,0.259999999998,0.06,152,886,0.000285,0,0,0,,?
first-responders,p_7_1,35584,0.0900000000001,0.02,83,440,0.000110004,0,0,0,,?
first-responders,p_7_10,35584,9.68,0.06,176,1038,0.000373006,0,0,0,,?
first-responders,p_7_2,38912,1794.82,0.04,69,335,8.29957e-05,0,0,0,,?
first-responders,p_7_3,38912,1794.87,0.03,105,660,0.000163,0,0,0,,?
first-responders,p_7_4,38912,1794.81,0.03,110,564,0.000176996,0,0,0,,?
first-responders,p_7_5,38912,1794.89,0.06,163,1179,0.000317,0,0,0,,?
first-responders,p_7_6,35584,24.64,0.04,139,886,0.000251003,0,0,0,,?
first-responders,p_7_7,38912,1794.84,0.03,121,547,0.000195,0,0,0,,?
first-responders,p_7_8,0,826.7,0.04,142,785,0.000259005,0,0,0,826.363,yes,319718,1326,8900,18,12,23,0,0,12506,
first-responders,p_7_9,0,0.119999999999,0.04,149,675,0.000271998,0,0,0,0.056251,no,0,0,0,0,6.70119e-39,0,0,0,1,
first-responders,p_8_1,0,1409.13,0.04,93,707,0.000130001,0,0,0,1408.73,yes,441255,7337,6604,32,15,17,0,0,18423,
first-responders,p_8_10,38912,1794.83,0.06,182,998,0.000383995,0,0,0,,?
first-responders,p_8_2,38912,1794.81,0.03,97,519,0.000141002,0,0,0,,?
first-responders,p_8_3,512,0.0400000000009,0.03,97,519,0.000141002,0,0,0,,?
first-responders,p_8_4,35584,0.41,0.06,169,1306,0.00034,0,0,0,,?
first-responders,p_8_5,35584,0.179999999997,0.04,131,859,0.000251003,0,0,0,,?
first-responders,p_8_6,38912,1794.81,0.07,199,1434,0.000451997,0,0,0,,?
first-responders,p_8_7,35584,0.619999999999,0.09,240,1864,0.000634998,0,0,0,,?
first-responders,p_8_8,38912,1794.92,0.07,197,1339,0.000461005,0,0,0,,?
first-responders,p_8_9,38912,1794.88,0.1,243,2049,0.000665009,0,0,0,,?
first-responders,p_9_1,38912,1794.82,0.04,132,475,0.000231002,0,0,0,,?
first-responders,p_9_10,512,0.0900000000038,0.04,132,475,0.000231002,0,0,0,,?
first-responders,p_9_2,35584,74.75,0.05,99,782,0.000165001,0,0,0,,?
first-responders,p_9_3,35584,1.11000000001,0.06,147,1184,0.000274993,0,0,0,,?
first-responders,p_9_4,512,0.0199999999968,0.06,147,1184,0.000274993,0,0,0,,?
first-responders,p_9_5,0,0.150000000001,0.06,147,1032,0.000273995,0,0,0,0.071692,no,0,0,0,0,6.70119e-39,0,0,0,1,
first-responders,p_9_6,35584,4.28,0.14,299,2778,0.00106402,0,0,0,,?
first-responders,p_9_7,35584,0.110000000001,0.05,121,550,0.000224996,0,0,0,,?
first-responders,p_9_8,35584,3.36,0.15,324,2951,0.001123,0,0,0,,?
first-responders,p_9_9,0,0.400000000001,0.12,287,2608,0.000992998,0,0,0,0.24093,no,0,0,0,0,6.70119e-39,0,0,0,1,
