faults,10_1,0.00999999977648,34,21,0,0.05,0.0599999997765,No,0.039,0.019
faults,10_10,0.0500000007451,151,201,38912,1794.82,1794.87,?,?,?
faults,10_2,0.00999999977648,47,41,0,90.81,90.8199999998,No,1.972,88.771
faults,10_3,0.00999999977648,60,61,38912,1794.82,1794.83,?,?,?
faults,10_4,0.00999999977648,73,81,38912,1794.85,1794.86,?,?,?
faults,10_5,0.0500000007451,86,101,256,712.74,712.790000001,?,?,?
faults,10_6,0.0500000007451,99,121,38912,1794.82,1794.87,?,?,?
faults,10_7,0.0299999993294,112,141,38912,1794.83,1794.86,?,?,?
faults,10_8,0.0399999991059,125,161,38912,1794.77,1794.81,?,?,?
faults,10_9,0.0599999986589,138,181,38912,1794.84,1794.9,?,?,?
faults,1_1,0.0,7,3,0,0.0099999999984,0.0099999999984,No,0.001,0.001
faults,2_1,0.00999999977648,10,5,0,0.0,0.00999999977648,No,0.003,0.001
faults,2_2,0.019999999553,15,9,0,0.0200000000004,0.0399999995534,No,0.005,0.005
faults,3_1,0.0,13,7,0,0.0100000000002,0.0100000000002,No,0.004,0.001
faults,3_2,0.00999999977648,19,13,0,0.0400000000009,0.0499999997774,No,0.016,0.018
faults,3_3,0.00999999977648,25,19,0,0.18,0.189999999777,No,0.044,0.133
faults,4_1,0.00999999977648,16,9,0,0.0199999999986,0.0299999997751,No,0.006,0.004
faults,4_2,0.00999999977648,23,17,0,0.160000000002,0.169999999778,No,0.042,0.118
faults,4_3,0.00999999977648,30,25,0,8.96,8.96999999978,No,0.182,8.772
faults,4_4,0.019999999553,37,33,0,99.12,99.1399999996,No,1.576,97.464
faults,5_1,0.00999999977648,19,11,0,0.0199999999986,0.0299999997751,No,0.011,0.007
faults,5_2,0.00999999977648,27,21,0,0.460000000001,0.469999999777,No,0.066,0.382
faults,5_3,0.019999999553,35,31,0,18.58,18.5999999996,No,0.383,18.181
faults,5_4,0.00999999977648,43,41,0,536.6,536.61,No,4.069,532.062
faults,5_5,0.019999999553,51,51,38912,1794.78,1794.8,?,?,?
faults,6_1,0.0,22,13,0,0.0300000000007,0.0300000000007,No,0.019,0.008
faults,6_2,0.0299999993294,31,25,0,3.32,3.34999999933,No,0.115,3.192
faults,6_3,0.00999999977648,40,37,0,113.58,113.59,No,2.448,111.039
faults,6_4,0.019999999553,49,49,38912,1794.79,1794.81,?,?,?
faults,6_5,0.0399999991059,58,61,38912,1794.81,1794.85,?,?,?
faults,6_6,0.0500000007451,67,73,38912,1794.83,1794.88,?,?,?
faults,7_1,0.0,25,15,0,0.0399999999972,0.0399999999972,No,0.025,0.012
faults,7_2,0.019999999553,35,29,0,4.51,4.52999999955,No,0.111,4.394
faults,7_3,0.019999999553,45,43,0,1510.42,1510.44,No,59.317,1449.848
faults,7_4,0.019999999553,55,57,38912,1794.82,1794.84,?,?,?
faults,7_5,0.0399999991059,65,71,38912,1794.85,1794.89,?,?,?
faults,7_6,0.019999999553,75,85,256,707.24,707.26,?,?,?
faults,7_7,0.0299999993294,85,99,256,960.99,961.019999999,?,?,?
faults,8_1,0.00999999977648,28,17,0,0.0600000000013,0.0699999997778,No,0.030,0.021
faults,8_2,0.00999999977648,39,33,0,8.36,8.36999999977,No,0.195,8.157
faults,8_3,0.019999999553,50,49,38912,1794.8,1794.82,?,?,?
faults,8_4,0.019999999553,61,65,38912,1794.84,1794.86,?,?,?
faults,8_5,0.019999999553,72,81,38912,1794.8,1794.82,?,?,?
faults,8_6,0.019999999553,83,97,256,586.3,586.32,?,?,?
faults,8_7,0.0399999991059,94,113,256,1543.17,1543.21,?,?,?
faults,8_8,0.0299999993294,105,129,38912,1794.82,1794.85,?,?,?
faults,9_1,0.00999999977648,31,19,0,0.0699999999997,0.0799999997762,No,0.037,0.026
faults,9_2,0.0299999993294,43,37,0,166.07,166.099999999,No,4.127,161.758
faults,9_3,0.00999999977648,55,55,38912,1794.76,1794.77,?,?,?
faults,9_4,0.0299999993294,67,73,38912,1794.82,1794.85,?,?,?
faults,9_5,0.0399999991059,79,91,256,1473.79,1473.83,?,?,?
faults,9_6,0.019999999553,91,109,256,694.56,694.58,?,?,?
faults,9_7,0.0399999991059,103,127,38912,1794.89,1794.93,?,?,?
faults,9_8,0.0299999993294,115,145,38912,1794.69,1794.72,?,?,?
faults,9_9,0.0299999993294,127,163,38912,1794.83,1794.86,?,?,?
