tireworld,p01,0.00999999977648,26,52,0,217.98,217.99,No,0.103,217.646
tireworld,p02,0.00999999977648,31,91,0,0.28,0.289999999777,Yes,0.213,0.058
tireworld,p03,0.0299999993294,30,80,0,57.36,57.3899999993,Yes,0.184,57.113
tireworld,p04,0.019999999553,38,138,38912,1794.61,1794.63,?,?,?
tireworld,p05,0.0299999993294,40,94,0,911.8,911.829999999,Yes,0.322,910.758
tireworld,p06,0.0299999993294,42,108,38912,1794.76,1794.79,?,?,?
tireworld,p07,0.019999999553,47,123,38912,1794.81,1794.83,?,?,?
tireworld,p08,0.0299999993294,49,147,38912,1794.82,1794.85,?,?,?
tireworld,p09,0.0399999991059,50,152,38912,1794.82,1794.86,?,?,?
tireworld,p10,0.0299999993294,54,194,0,3.54,3.56999999933,Yes,3.012,0.523
tireworld,p11,0.019999999553,55,161,38912,1794.79,1794.81,?,?,?
tireworld,p12,0.0599999986589,59,251,0,4.12,4.17999999866,Yes,3.473,0.632
tireworld,p13,0.0500000007451,65,365,38912,1794.79,1794.84,?,?,?
tireworld,p14,0.0500000007451,60,292,38912,1794.85,1794.9,?,?,?
tireworld,p15,0.0299999993294,66,148,38912,1794.84,1794.87,?,?,?
tireworld,tiny,0.0,9,8,0,0.0199999999968,0.0199999999968,Yes,0.008,0.008
tireworld,tiny-unsat,0.00999999977648,8,7,0,0.0200000000004,0.0299999997769,No,0.004,0.002
tireworld,very-tiny-unsat,0.0,4,4,0,0.0,0.0,No,0.000,0.001
